%YAML 1.1
%TAG !u! tag:unity3d.com,2011:
--- !u!162 &1
EditorUserSettings:
  m_ObjectHideFlags: 0
  serializedVersion: 4
  m_ConfigSettings:
    RecentlyUsedScenePath-0:
      value: 224247031146466b0501182d1e6c6f18190317241e2d273c39201036adc43135edf479cde23730103603eb1e05320031f103070cb92f0f061e22f20f15dd111f10cb1bcc14cf522fc81c12cb8308dfeac1cf
      flags: 0
    RecentlyUsedScenePath-1:
      value: 224247031146466b0501182d1e6c6f181903172419262f2434071827f5ef2633ebe931a6c33f32332a4dcb390931312dfd090c0fe3190b075e3eef0112fa140603c4148829cb1a12ce5709c0c409c8
      flags: 0
    RecentlyUsedScenePath-2:
      value: 224247031146466b0501182d1e6c6f181903172419262f2434071827f5ef2633ebe931a6c33f32332a4ddf290a1c002cfb091a46c21e1e040307fc025ecc13161fc00b8a2add113eca0a15cdde50fde2c0d8d7e2ddf9a9cdd0d6b4eb
      flags: 0
    RecentlyUsedScenePath-3:
      value: 22424703114646680e0b0227036c6c111b07142f1f2b233e2867083debf42d
      flags: 0
    RecentlyUsedScenePath-4:
      value: 22424703114646790c1c0e23022a5e1e59241b2f222d357f0f280f31e3f23d39ecd435ece93f7129370bfb25
      flags: 0
    RecentlyUsedScenePath-5:
      value: 22424703114646680e0b0227036c78111b122b292926237e38271427fb
      flags: 0
    RecentlyUsedScenePath-6:
      value: 22424703114646680e0b0227036c731f141501192f2d2835633c133af6f9
      flags: 0
    vcSharedLogLevel:
      value: 0d5e400f0650
      flags: 0
  m_VCAutomaticAdd: 1
  m_VCDebugCom: 0
  m_VCDebugCmd: 0
  m_VCDebugOut: 0
  m_SemanticMergeMode: 2
  m_VCShowFailedCheckout: 1
  m_VCOverwriteFailedCheckoutAssets: 1
  m_VCProjectOverlayIcons: 1
  m_VCHierarchyOverlayIcons: 1
  m_VCOtherOverlayIcons: 1
  m_VCAllowAsyncUpdate: 1
